<?xml version="1.0" encoding="utf-8"?>
<!-- Generator: Adobe Illustrator 22.0.0, SVG Export Plug-In . SVG Version: 6.00 Build 0)  -->
<svg version="1.1" id="klogo" xmlns="http://www.w3.org/2000/svg" xmlns:xlink="http://www.w3.org/1999/xlink" x="0px" y="0px"
	 viewBox="0 0 1212.3 540" style="enable-background:new 0 0 1212.3 540;" xml:space="preserve">
<style type="text/css">
	.st0{fill:#999999;}
	.st1{fill:#6F2089;}
	.st2{fill:none;stroke:#999999;stroke-width:11.1854;stroke-miterlimit:10;}
	.st3{fill:none;stroke:#FFFFFF;stroke-width:8;stroke-linecap:round;stroke-miterlimit:10;}
	.st4{fill:#FCFCFC;}
	.st5{fill:#FFFFFF;}
</style>
<g id="logoEvent">
	<g>
		<g>
			<rect x="1002.1" y="77.4" class="st0" width="15.1" height="53.4"/>
			<rect x="1002.1" y="143.3" class="st0" width="15.1" height="53.4"/>
			<rect x="1002.1" y="209.2" class="st0" width="15.1" height="53.4"/>
			<rect x="1002.1" y="275.1" class="st0" width="15.1" height="53.4"/>
			<rect x="1002.1" y="341" class="st0" width="15.1" height="53.4"/>
			<rect x="1026.6" y="77.4" class="st0" width="15.1" height="53.4"/>
			<rect x="1051.1" y="77.4" class="st0" width="15.1" height="53.4"/>
			<rect x="1075.7" y="77.4" class="st0" width="15.1" height="53.4"/>
			<rect x="1100.2" y="77.4" class="st0" width="15.1" height="53.4"/>
			<rect x="1124.7" y="77.4" class="st0" width="15.1" height="53.4"/>
			<rect x="1149.2" y="77.4" class="st0" width="15.1" height="53.4"/>
			<rect x="1173.7" y="77.4" class="st0" width="15.1" height="53.4"/>
			<rect x="1197.2" y="77.4" class="st0" width="15.1" height="53.4"/>
			<rect x="1026.6" y="143.3" class="st0" width="15.1" height="53.4"/>
			<rect x="1051.1" y="143.3" class="st0" width="15.1" height="53.4"/>
			<rect x="1075.7" y="143.3" class="st0" width="15.1" height="53.4"/>
			<rect x="1100.2" y="143.3" class="st0" width="15.1" height="53.4"/>
			<rect x="1026.6" y="209.2" class="st0" width="15.1" height="53.4"/>
			<rect x="1051.1" y="209.2" class="st0" width="15.1" height="53.4"/>
			<rect x="1075.7" y="209.2" class="st0" width="15.1" height="53.4"/>
			<rect x="1100.2" y="209.2" class="st0" width="15.1" height="53.4"/>
			<rect x="1124.7" y="209.2" class="st0" width="15.1" height="53.4"/>
			<rect x="1149.2" y="209.2" class="st0" width="15.1" height="53.4"/>
			<rect x="1026.6" y="275.1" class="st0" width="15.1" height="53.4"/>
			<rect x="1051.1" y="275.1" class="st0" width="15.1" height="53.4"/>
			<rect x="1026.6" y="341" class="st0" width="15.1" height="53.4"/>
			<rect x="1051.1" y="341" class="st0" width="15.1" height="53.4"/>
			<rect x="1075.7" y="341" class="st0" width="15.1" height="53.4"/>
			<rect x="1100.2" y="341" class="st0" width="15.1" height="53.4"/>
			<rect x="1125.2" y="341" class="st0" width="15.1" height="53.4"/>
			<rect x="1150.3" y="341" class="st0" width="15.1" height="53.4"/>
			<rect x="1175.3" y="341" class="st0" width="15.1" height="53.4"/>
		</g>
		<g>
			<rect x="195.1" y="77.5" class="st0" width="15.1" height="53.4"/>
			<rect x="195.1" y="143.4" class="st0" width="15.1" height="53.4"/>
			<rect x="195.1" y="209.3" class="st0" width="15.1" height="53.4"/>
			<rect x="195.1" y="275.2" class="st0" width="15.1" height="53.4"/>
			<rect x="195.1" y="341.1" class="st0" width="15.1" height="53.4"/>
			<rect x="170.6" y="77.5" class="st0" width="15.1" height="53.4"/>
			<rect x="146.1" y="77.5" class="st0" width="15.1" height="53.4"/>
			<rect x="121.6" y="77.5" class="st0" width="15.1" height="53.4"/>
			<rect x="97.1" y="77.5" class="st0" width="15.1" height="53.4"/>
			<rect x="72.6" y="77.5" class="st0" width="15.1" height="53.4"/>
			<rect x="48" y="77.5" class="st0" width="15.1" height="53.4"/>
			<rect x="23.5" y="77.5" class="st0" width="15.1" height="53.4"/>
			<rect y="77.5" class="st0" width="15.1" height="53.4"/>
			<rect x="170.6" y="143.4" class="st0" width="15.1" height="53.4"/>
			<rect x="146.1" y="143.4" class="st0" width="15.1" height="53.4"/>
			<rect x="121.6" y="143.4" class="st0" width="15.1" height="53.4"/>
			<rect x="97.1" y="143.4" class="st0" width="15.1" height="53.4"/>
			<rect x="170.6" y="209.3" class="st0" width="15.1" height="53.4"/>
			<rect x="146.1" y="209.3" class="st0" width="15.1" height="53.4"/>
			<rect x="121.6" y="209.3" class="st0" width="15.1" height="53.4"/>
			<rect x="97.1" y="209.3" class="st0" width="15.1" height="53.4"/>
			<rect x="72.6" y="209.3" class="st0" width="15.1" height="53.4"/>
			<rect x="48" y="209.3" class="st0" width="15.1" height="53.4"/>
			<rect x="170.6" y="275.2" class="st0" width="15.1" height="53.4"/>
			<rect x="146.1" y="275.2" class="st0" width="15.1" height="53.4"/>
			<rect x="170.6" y="341.1" class="st0" width="15.1" height="53.4"/>
			<rect x="146.1" y="341.1" class="st0" width="15.1" height="53.4"/>
			<rect x="121.6" y="341.1" class="st0" width="15.1" height="53.4"/>
			<rect x="97.1" y="341.1" class="st0" width="15.1" height="53.4"/>
			<rect x="72" y="341.1" class="st0" width="15.1" height="53.4"/>
			<rect x="47" y="341.1" class="st0" width="15.1" height="53.4"/>
			<rect x="21.9" y="341.1" class="st0" width="15.1" height="53.4"/>
		</g>
		<g>
			<path class="st1" d="M273.2,124.6H308v94.5h1.1l39.7-94.5h34.6L339.1,226l49.2,114.9h-37.2l-42-102.9H308v102.9h-34.8V124.6z"/>
			<path class="st1" d="M467.1,342.8c-3.7,0-7.6-0.3-11.9-0.8s-8.5-1.7-12.7-3.5s-8.3-4.3-12.1-7.5c-3.9-3.2-7.3-7.5-10.3-12.9
				c-3-5.3-5.4-11.9-7.2-19.7c-1.8-7.8-2.7-17.1-2.7-27.9v-76.6c0-10.9,0.9-20.2,2.8-27.9c1.8-7.7,4.3-14.2,7.3-19.5
				s6.5-9.5,10.4-12.6s8-5.5,12.2-7.2c4.2-1.6,8.5-2.7,12.7-3.2s8.1-0.8,11.7-0.8c3.4,0,7.2,0.2,11.3,0.7c4.2,0.5,8.3,1.5,12.5,3
				c4.2,1.6,8.2,3.9,12.1,7s7.4,7.3,10.5,12.5c3,5.3,5.5,11.8,7.3,19.6s2.8,17.2,2.8,28.3v76.6c0,10.7-0.9,19.9-2.8,27.7
				s-4.3,14.3-7.4,19.6c-3,5.4-6.6,9.7-10.5,12.9c-4,3.3-8.1,5.8-12.2,7.6c-4.2,1.8-8.3,3-12.4,3.6
				C474.1,342.5,470.4,342.8,467.1,342.8z M467.1,318.1c3.4,0,6.4-0.5,8.9-1.6s4.7-3,6.3-5.7c1.7-2.7,2.9-6.3,3.8-10.7
				c0.8-4.4,1.3-10,1.3-16.8v-98.4c0-6.9-0.4-12.7-1.3-17.3s-2.1-8.4-3.8-11.2c-1.7-2.8-3.8-4.8-6.3-6s-5.5-1.8-8.9-1.8
				c-3.5,0-6.5,0.6-9.1,1.8s-4.7,3.2-6.4,6c-1.7,2.8-3,6.6-3.8,11.2c-0.9,4.6-1.3,10.4-1.3,17.3v98.4c0,6.8,0.4,12.3,1.3,16.8
				c0.8,4.4,2.1,8,3.8,10.7c1.7,2.7,3.8,4.6,6.4,5.7C460.5,317.6,463.6,318.1,467.1,318.1z"/>
			<path class="st1" d="M555.8,297.1c0-4.6,0.3-8.9,0.9-12.9c0.6-3.9,1.5-8.2,2.6-12.7h27V282c0,5.8,0.4,11,1.1,15.4
				c0.8,4.5,2,8.3,3.8,11.3c1.7,3.1,4.1,5.4,7,7s6.5,2.3,10.7,2.3c6.6,0,11.7-1.7,15.2-5.1s5.2-8.4,5.2-15c0-3.4-0.2-6.5-0.7-9.3
				s-1.3-5.6-2.5-8.4s-2.8-5.7-4.9-8.8c-2.1-3.1-4.7-6.5-7.9-10.3l-36.2-40.6c-6.4-7.8-11.4-15.6-14.9-23.5s-5.2-16.3-5.2-25.3
				c0-7.2,1.2-13.8,3.6-19.8c2.4-6,5.8-11.2,10.3-15.5s10-7.7,16.6-10.1c6.6-2.4,14-3.6,22.3-3.6c10.1,0,18.5,1.4,25.3,4.1
				c6.8,2.7,12.1,6.2,16.2,10.6c4,4.4,6.9,9.3,8.5,14.8c1.7,5.4,2.5,10.9,2.5,16.4c0,4.6-0.4,8.9-1.1,12.9c-0.8,3.9-1.6,8.3-2.6,13
				h-26.8v-10.3c0-11.5-1.7-20.3-5.2-26.4c-3.5-6.1-9.2-9.2-17-9.2c-6.5,0-11.4,1.7-14.6,5.1c-3.2,3.4-4.8,8-4.8,13.7
				c0,3,0.2,5.8,0.7,8.2s1.2,4.7,2.1,6.8c0.9,2.1,2.1,4.1,3.4,6c1.3,1.9,2.9,4,4.6,6.1l40.4,46.1c7.3,9,13,17.7,16.9,26
				s5.9,17.1,5.9,26.4c0,7.7-1.3,14.6-3.8,20.8c-2.5,6.2-6.2,11.4-10.9,15.7c-4.7,4.3-10.5,7.6-17.2,9.9s-14.3,3.5-22.7,3.5
				c-10.4,0-19-1.3-25.8-3.9s-12.3-6.1-16.4-10.4c-4.1-4.3-6.9-9.2-8.6-14.7C556.6,308.5,555.8,302.9,555.8,297.1z"/>
			<path class="st1" d="M692.4,297.1c0-4.6,0.3-8.9,0.9-12.9c0.6-3.9,1.5-8.2,2.6-12.7h27V282c0,5.8,0.4,11,1.1,15.4
				c0.8,4.5,2,8.3,3.8,11.3c1.7,3.1,4.1,5.4,7,7s6.5,2.3,10.7,2.3c6.6,0,11.7-1.7,15.2-5.1s5.2-8.4,5.2-15c0-3.4-0.2-6.5-0.7-9.3
				s-1.3-5.6-2.5-8.4s-2.8-5.7-4.9-8.8c-2.1-3.1-4.7-6.5-7.9-10.3l-36.2-40.6c-6.4-7.8-11.4-15.6-14.9-23.5s-5.2-16.3-5.2-25.3
				c0-7.2,1.2-13.8,3.6-19.8c2.4-6,5.8-11.2,10.3-15.5s10-7.7,16.6-10.1c6.6-2.4,14-3.6,22.3-3.6c10.1,0,18.5,1.4,25.3,4.1
				c6.8,2.7,12.1,6.2,16.2,10.6c4,4.4,6.9,9.3,8.5,14.8c1.7,5.4,2.5,10.9,2.5,16.4c0,4.6-0.4,8.9-1.1,12.9c-0.8,3.9-1.6,8.3-2.6,13
				h-26.8v-10.3c0-11.5-1.7-20.3-5.2-26.4c-3.5-6.1-9.2-9.2-17-9.2c-6.5,0-11.4,1.7-14.6,5.1c-3.2,3.4-4.8,8-4.8,13.7
				c0,3,0.2,5.8,0.7,8.2s1.2,4.7,2.1,6.8c0.9,2.1,2.1,4.1,3.4,6c1.3,1.9,2.9,4,4.6,6.1l40.4,46.1c7.3,9,13,17.7,16.9,26
				s5.9,17.1,5.9,26.4c0,7.7-1.3,14.6-3.8,20.8c-2.5,6.2-6.2,11.4-10.9,15.7c-4.7,4.3-10.5,7.6-17.2,9.9s-14.3,3.5-22.7,3.5
				c-10.4,0-19-1.3-25.8-3.9s-12.3-6.1-16.4-10.4c-4.1-4.3-6.9-9.2-8.6-14.7C693.2,308.5,692.4,302.9,692.4,297.1z"/>
			<path class="st1" d="M863,124.6h40l42.4,216.3h-35.2l-6.3-38.7H862l-6,38.7h-35.3L863,124.6z M899.9,277.5l-16.1-107.8h-1.5
				l-16.2,107.8H899.9z"/>
		</g>
		<path class="st2" d="M943.4,435.6H268.9c-25.5,0-46.2-20.7-46.2-46.2V97.6c0-33.8,27.4-61.2,61.2-61.2h659.5
			c25.5,0,46.2,20.7,46.2,46.2v306.8C989.6,414.9,968.9,435.6,943.4,435.6z"/>
	</g>
	<line class="st3" x1="448.2" y1="4" x2="764.8" y2="4"/>
</g>
<rect id="rectEvent" x="368.6" y="381.4" class="st1" width="499.1" height="158.6"/>
<g>
	<g>
		<g>
			<path class="st4" d="M588.9,426.9h13.4l7.1,37l1.8,14.8h0.4l2-14.8l7-37h13l-16.7,69.6h-11.5L588.9,426.9z"/>
			<path class="st4" d="M718.3,498.3c-3.2,0-6-0.6-8.4-1.7s-4.5-2.8-6.1-5.2c-1.7-2.4-2.9-5.4-3.8-9.1s-1.3-8.1-1.3-13.3v-13.1
				c0-4.4,0.3-8.2,1-11.4c0.7-3.2,1.6-5.8,2.7-7.9c1.1-2.1,2.4-3.8,3.9-5.1c1.5-1.2,3-2.2,4.6-2.9c1.6-0.7,3.1-1.1,4.7-1.3
				c1.5-0.2,3-0.3,4.3-0.3c2.4,0,4.7,0.3,7,1c2.2,0.7,4.2,1.9,5.9,3.5c1.7,1.7,3.1,3.9,4.1,6.7c1,2.8,1.5,6.3,1.5,10.5
				c0,1.4,0,2.8-0.1,4.3s-0.2,2.9-0.3,4.3s-0.3,2.8-0.6,4.1s-0.5,2.5-0.7,3.6h-24.4v7.1c0,3,0.1,5.6,0.4,7.7c0.2,2.1,0.7,3.7,1.3,5
				s1.4,2.2,2.4,2.7c1,0.6,2.3,0.8,3.8,0.8c0.8,0,1.6-0.2,2.4-0.5c0.8-0.3,1.5-0.9,2-1.6c0.6-0.7,1.1-1.7,1.4-3
				c0.4-1.2,0.5-2.8,0.5-4.6v-2.2h11.2v2.7c0,6.6-1.7,11.4-5,14.4C729.4,496.8,724.6,498.3,718.3,498.3z M725.8,456.6
				c0-0.4,0.1-0.9,0.1-1.5s0.1-1.3,0.1-1.9c0-0.7,0-1.3,0-2s0-1.2,0-1.7c0-4.6-0.6-7.9-1.7-9.9c-1.1-2-2.8-3-5.1-3
				c-1.2,0-2.2,0.3-3.1,0.8c-0.9,0.5-1.6,1.4-2.2,2.6c-0.6,1.2-1,2.9-1.3,4.9s-0.4,4.5-0.4,7.5v4.2H725.8z"/>
			<path class="st4" d="M570.6,443.5c-0.7-3.2-1.6-5.8-2.7-7.9c-1.1-2.1-2.4-3.8-3.9-5.1c-1.5-1.2-3-2.2-4.6-2.9
				c-1.6-0.7-3.1-1.1-4.7-1.3c-1-0.1-2.1-0.2-3-0.3c-1,0-2,0.1-3,0.3c-1.6,0.2-3.1,0.6-4.7,1.3c-1.6,0.7-3.1,1.7-4.6,2.9
				c-1.5,1.3-2.8,3-3.9,5.1c-1.1,2.1-2,4.7-2.7,7.9c-0.7,3.2-1,7-1,11.4V468c0,5.2,0.4,9.6,1.3,13.3c0.9,3.7,2.1,6.7,3.8,9.1
				c1.6,2.4,3.7,4.1,6.1,5.2c2.4,1.1,5.2,1.7,8.4,1.7c0.1,0,0.2,0,0.3,0c0.1,0,0.2,0,0.3,0c3.2,0,6-0.6,8.4-1.7
				c2.4-1.1,4.5-2.8,6.1-5.2c1.7-2.4,2.9-5.4,3.8-9.1c0.9-3.7,1.3-8.1,1.3-13.3v-13.1C571.6,450.5,571.3,446.7,570.6,443.5z
				 M558.1,455.6L558,464v7.1c0,3-0.1,5.6-0.4,7.7c-0.2,2.1-0.7,3.7-1.3,5c-0.6,1.3-1.4,2.2-2.4,2.7c-0.6,0.4-1.4,0.6-2.2,0.7
				c-0.8-0.1-1.6-0.3-2.2-0.7c-1-0.5-1.8-1.4-2.4-2.7c-0.6-1.3-1.1-2.9-1.3-5c-0.3-2.1-0.4-4.7-0.4-7.7V464l-0.1-8.4v-4.2
				c0-3,0.1-5.5,0.4-7.5s0.7-3.7,1.3-4.9c0.6-1.2,1.3-2.1,2.2-2.6c0.8-0.4,1.6-0.7,2.5-0.8c1,0.1,1.8,0.4,2.5,0.8
				c0.9,0.5,1.6,1.4,2.2,2.6c0.6,1.2,1,2.9,1.3,4.9c0.3,2,0.4,4.5,0.4,7.5V455.6z"/>
			<path class="st4" d="M668.3,427.4v52.3c0,1.5,0.2,2.7,0.5,3.7c0.3,0.9,0.7,1.7,1.3,2.2c0.5,0.5,1.2,0.9,1.9,1
				c0.7,0.2,1.5,0.3,2.2,0.3c1.3,0,2.5-0.2,3.5-0.5s2-0.7,2.9-1.3v7.1c-0.8,0.9-1.6,1.7-2.5,2.2c-0.9,0.6-1.8,1-2.8,1.4
				s-1.9,0.6-2.9,0.7s-2,0.2-2.9,0.2c-1.9,0-3.7-0.2-5.4-0.7s-3.3-1.4-4.6-2.7c-1.3-1.3-2.4-3.2-3.2-5.5c-0.8-2.4-1.2-5.4-1.2-9.2
				l-0.3-51.2H668.3z"/>
			<path class="st4" d="M761.1,483c0-1.5,0.2-3,0.5-4.4s0.6-2.5,0.9-3.4h9.5c0,2.5,0.1,4.6,0.4,6.3c0.3,1.7,0.7,3.1,1.3,4.1
				s1.4,1.7,2.4,2.2c1,0.4,2.2,0.7,3.7,0.7c2,0,3.5-0.5,4.4-1.6s1.4-2.3,1.4-3.7c0-0.7-0.1-1.4-0.3-2.1s-0.5-1.4-0.9-2
				c-0.4-0.7-0.9-1.4-1.4-2.1c-0.6-0.7-1.2-1.5-1.9-2.3l-9.8-11c-1.3-1.5-2.5-3.1-3.7-4.6c-1.2-1.6-2.2-3.2-3.1-4.9
				c-0.9-1.7-1.6-3.4-2.2-5.2s-0.8-3.7-0.8-5.8c0-2.7,0.5-5,1.5-7s2.3-3.6,3.9-5c1.7-1.3,3.6-2.3,5.7-2.9c2.2-0.6,4.5-1,6.9-1
				c2.7,0,5.1,0.3,7.2,0.9c2.1,0.6,4,1.5,5.5,2.7s2.7,2.7,3.5,4.5s1.2,3.9,1.2,6.3c0,1.6-0.2,3.2-0.5,4.7s-0.6,2.8-0.9,3.9H786
				c0-2.3-0.1-4.3-0.3-6s-0.5-3.1-1-4.3c-0.5-1.1-1.1-2-2-2.6c-0.8-0.6-1.9-0.9-3.3-0.9c-1.2,0-2.1,0.2-2.9,0.5
				c-0.8,0.4-1.4,0.8-1.9,1.4s-0.8,1.2-1,1.9c-0.2,0.7-0.3,1.4-0.3,2.2c0,1.6,0.4,3.1,1.2,4.5s1.9,2.9,3.2,4.5l10.8,12
				c0.8,0.9,1.7,2,2.7,3.3s2,2.7,2.9,4.3c0.9,1.6,1.7,3.3,2.3,5.1s1,3.8,1,5.8c0,2.5-0.4,4.7-1.2,6.7s-2,3.7-3.6,5.1
				s-3.6,2.5-5.9,3.3s-5,1.2-8,1.2c-2.4,0-4.8-0.3-6.9-0.8c-2.2-0.5-4-1.4-5.6-2.6s-2.9-2.8-3.8-4.7
				C761.5,488.3,761.1,485.9,761.1,483z"/>
		</g>
		<path class="st4" d="M518.7,496.3h-15.8l-6.5-46.5l-1.6-17.4h-0.5l-2,17.4l-8.6,46.5h-13.9l-8.9-46.5l-2.5-17.4h-0.5l-1.1,17.4
			l-5.7,46.5h-15.6l14.7-85.9h15.2l9.4,47.8l2.1,13.2h0.5l1.9-13.2l8.5-47.8h15.9L518.7,496.3z"/>
	</g>
	<rect x="654.8" y="410.1" class="st5" width="13.5" height="11"/>
</g>
</svg>
